SELECT 
  content_type 
FROM 
  (VALUES
   ('Achenes'), 
   ('Bud'), 
   ('Branch'), 
   ('Bulb'), 
   ('Cladode'), 
   ('Collection_Site'), 
   ('Ear'), 
   ('Flower'), 
   ('Field'), 
   ('Fruit'), 
   ('Greenhouse'), 
   ('Head'), 
   ('Kernels'), 
   ('Leaves'), 
   ('Miscellaneous'), 
   ('Panicle'), 
   ('Plant'), 
   ('Pod'), 
   ('Root'), 
   ('Seeds'), 
   ('Seedling'), 
   ('Shoot'), 
   ('Stem'), 
   ('Silique'), 
   ('Stalk'), 
   ('Spike'), 
   ('Spine'), 
   ('Stipule'), 
   ('Tendril'), 
   ('Umbel'), 
   ('Vegetative')
  ) AS temp(content_type)